G04 MADE WITH FRITZING*
G04 WWW.FRITZING.ORG*
G04 DOUBLE SIDED*
G04 HOLES PLATED*
G04 CONTOUR ON CENTER OF CONTOUR VECTOR*
%ASAXBY*%
%FSLAX23Y23*%
%MOIN*%
%OFA0B0*%
%SFA1.0B1.0*%
%ADD10C,0.078000*%
%ADD11C,0.075000*%
%ADD12C,0.053528*%
%ADD13C,0.099055*%
%ADD14C,0.082000*%
%ADD15C,0.074000*%
%ADD16C,0.064186*%
%ADD17C,0.140000*%
%ADD18C,0.062992*%
%ADD19R,0.075000X0.075000*%
%ADD20R,0.099055X0.099055*%
%ADD21R,0.082000X0.082000*%
%ADD22R,0.078000X0.078000*%
%ADD23R,0.062992X0.062992*%
%ADD24R,0.001000X0.001000*%
%LNCOPPER1*%
G90*
G70*
G54D10*
X1086Y499D03*
X986Y499D03*
X886Y499D03*
X786Y499D03*
X686Y499D03*
X1086Y499D03*
X986Y499D03*
X886Y499D03*
X786Y499D03*
X686Y499D03*
X1286Y2199D03*
X1186Y2199D03*
X786Y2999D03*
X686Y2999D03*
X586Y2999D03*
G54D11*
X386Y1999D03*
X486Y1999D03*
X386Y1599D03*
X486Y1599D03*
G54D12*
X986Y2399D03*
X1086Y2399D03*
X1186Y2399D03*
G54D13*
X249Y2999D03*
X386Y2999D03*
G54D14*
X786Y2797D03*
X786Y2499D03*
G54D10*
X1686Y299D03*
X1886Y499D03*
G54D11*
X3186Y199D03*
X3486Y199D03*
X2286Y199D03*
X2586Y199D03*
G54D10*
X1086Y1999D03*
X1086Y1899D03*
X1086Y1799D03*
G54D15*
X2484Y2199D03*
X3284Y2199D03*
X2984Y2899D03*
X2884Y2199D03*
X3184Y2899D03*
X2684Y2199D03*
X3084Y2199D03*
X3084Y2899D03*
X3284Y2899D03*
X2584Y2199D03*
X2784Y2199D03*
X2984Y2199D03*
X3184Y2199D03*
X2484Y2299D03*
X2484Y2899D03*
X2584Y2899D03*
X2684Y2899D03*
X2784Y2899D03*
X2884Y2899D03*
G54D10*
X2286Y1999D03*
X2186Y1999D03*
X2286Y2199D03*
X2286Y2199D03*
X2186Y2199D03*
X2286Y299D03*
X2386Y299D03*
X2486Y299D03*
X2586Y299D03*
X2686Y299D03*
X2786Y299D03*
X2886Y299D03*
X2986Y299D03*
X3186Y1798D03*
X3086Y1799D03*
X2986Y1799D03*
X2886Y1799D03*
X2786Y1799D03*
X2686Y1799D03*
X2586Y1799D03*
X2486Y1799D03*
X2386Y1799D03*
X2286Y1799D03*
X2186Y1799D03*
X2086Y1799D03*
X1986Y1799D03*
X1886Y1799D03*
X1786Y1799D03*
X1686Y1799D03*
X1586Y1799D03*
X1486Y1798D03*
X1386Y1798D03*
X1286Y1801D03*
X3186Y1101D03*
X3086Y1101D03*
X2986Y1101D03*
X2886Y1101D03*
X2786Y1101D03*
X2686Y1101D03*
X2586Y1101D03*
X2486Y1101D03*
X2386Y1101D03*
X2286Y1101D03*
X2186Y1101D03*
X2086Y1101D03*
X1986Y1101D03*
X1886Y1101D03*
X1786Y1101D03*
X1686Y1101D03*
X1586Y1101D03*
X1486Y1101D03*
X1386Y1101D03*
X1286Y1101D03*
G54D16*
X3186Y599D03*
X3186Y499D03*
X3186Y400D03*
G54D17*
X586Y2499D03*
X346Y2499D03*
X466Y2309D03*
G54D18*
X386Y899D03*
X386Y997D03*
X386Y1199D03*
X386Y1297D03*
G54D11*
X786Y1099D03*
X1086Y1099D03*
G54D10*
X2086Y299D03*
G54D11*
X786Y899D03*
X1086Y899D03*
G54D10*
X1086Y499D03*
X986Y499D03*
X886Y499D03*
X786Y499D03*
X686Y499D03*
X1086Y499D03*
X986Y499D03*
X886Y499D03*
X786Y499D03*
X686Y499D03*
X2286Y299D03*
X3186Y699D03*
G54D19*
X386Y1999D03*
X386Y1599D03*
G54D20*
X249Y2999D03*
G54D21*
X786Y2798D03*
G54D22*
X2286Y299D03*
X3186Y1801D03*
G54D23*
X386Y899D03*
X386Y1199D03*
G54D24*
X981Y2459D02*
X991Y2459D01*
X1081Y2459D02*
X1091Y2459D01*
X1180Y2459D02*
X1191Y2459D01*
X977Y2458D02*
X995Y2458D01*
X1077Y2458D02*
X1095Y2458D01*
X1177Y2458D02*
X1195Y2458D01*
X974Y2457D02*
X997Y2457D01*
X1074Y2457D02*
X1097Y2457D01*
X1174Y2457D02*
X1197Y2457D01*
X972Y2456D02*
X1000Y2456D01*
X1072Y2456D02*
X1100Y2456D01*
X1172Y2456D02*
X1200Y2456D01*
X970Y2455D02*
X1001Y2455D01*
X1070Y2455D02*
X1101Y2455D01*
X1170Y2455D02*
X1201Y2455D01*
X969Y2454D02*
X1003Y2454D01*
X1069Y2454D02*
X1103Y2454D01*
X1169Y2454D02*
X1203Y2454D01*
X968Y2453D02*
X1004Y2453D01*
X1068Y2453D02*
X1104Y2453D01*
X1168Y2453D02*
X1204Y2453D01*
X966Y2452D02*
X1005Y2452D01*
X1066Y2452D02*
X1105Y2452D01*
X1166Y2452D02*
X1205Y2452D01*
X965Y2451D02*
X1006Y2451D01*
X1065Y2451D02*
X1106Y2451D01*
X1165Y2451D02*
X1206Y2451D01*
X964Y2450D02*
X1007Y2450D01*
X1064Y2450D02*
X1107Y2450D01*
X1164Y2450D02*
X1207Y2450D01*
X964Y2449D02*
X1008Y2449D01*
X1064Y2449D02*
X1108Y2449D01*
X1164Y2449D02*
X1208Y2449D01*
X963Y2448D02*
X1009Y2448D01*
X1063Y2448D02*
X1109Y2448D01*
X1163Y2448D02*
X1209Y2448D01*
X962Y2447D02*
X1010Y2447D01*
X1062Y2447D02*
X1110Y2447D01*
X1162Y2447D02*
X1210Y2447D01*
X961Y2446D02*
X1010Y2446D01*
X1061Y2446D02*
X1110Y2446D01*
X1161Y2446D02*
X1210Y2446D01*
X961Y2445D02*
X1011Y2445D01*
X1061Y2445D02*
X1111Y2445D01*
X1161Y2445D02*
X1211Y2445D01*
X960Y2444D02*
X1012Y2444D01*
X1060Y2444D02*
X1112Y2444D01*
X1160Y2444D02*
X1212Y2444D01*
X960Y2443D02*
X1012Y2443D01*
X1060Y2443D02*
X1112Y2443D01*
X1160Y2443D02*
X1212Y2443D01*
X959Y2442D02*
X1013Y2442D01*
X1059Y2442D02*
X1113Y2442D01*
X1159Y2442D02*
X1213Y2442D01*
X959Y2441D02*
X1013Y2441D01*
X1059Y2441D02*
X1113Y2441D01*
X1159Y2441D02*
X1213Y2441D01*
X958Y2440D02*
X1013Y2440D01*
X1058Y2440D02*
X1113Y2440D01*
X1158Y2440D02*
X1213Y2440D01*
X958Y2439D02*
X1014Y2439D01*
X1058Y2439D02*
X1114Y2439D01*
X1158Y2439D02*
X1214Y2439D01*
X958Y2438D02*
X1014Y2438D01*
X1058Y2438D02*
X1114Y2438D01*
X1158Y2438D02*
X1214Y2438D01*
X957Y2437D02*
X1014Y2437D01*
X1057Y2437D02*
X1114Y2437D01*
X1157Y2437D02*
X1214Y2437D01*
X957Y2436D02*
X1015Y2436D01*
X1057Y2436D02*
X1115Y2436D01*
X1157Y2436D02*
X1215Y2436D01*
X957Y2435D02*
X1015Y2435D01*
X1057Y2435D02*
X1115Y2435D01*
X1157Y2435D02*
X1215Y2435D01*
X957Y2434D02*
X1015Y2434D01*
X1057Y2434D02*
X1115Y2434D01*
X1157Y2434D02*
X1215Y2434D01*
X957Y2433D02*
X1015Y2433D01*
X1057Y2433D02*
X1115Y2433D01*
X1157Y2433D02*
X1215Y2433D01*
X956Y2432D02*
X1015Y2432D01*
X1056Y2432D02*
X1115Y2432D01*
X1156Y2432D02*
X1215Y2432D01*
X956Y2431D02*
X1015Y2431D01*
X1056Y2431D02*
X1115Y2431D01*
X1156Y2431D02*
X1215Y2431D01*
X956Y2430D02*
X1015Y2430D01*
X1056Y2430D02*
X1115Y2430D01*
X1156Y2430D02*
X1215Y2430D01*
X956Y2429D02*
X1015Y2429D01*
X1056Y2429D02*
X1115Y2429D01*
X1156Y2429D02*
X1215Y2429D01*
X956Y2428D02*
X1015Y2428D01*
X1056Y2428D02*
X1115Y2428D01*
X1156Y2428D02*
X1215Y2428D01*
X956Y2427D02*
X1015Y2427D01*
X1056Y2427D02*
X1115Y2427D01*
X1156Y2427D02*
X1215Y2427D01*
X956Y2426D02*
X1015Y2426D01*
X1056Y2426D02*
X1115Y2426D01*
X1156Y2426D02*
X1215Y2426D01*
X956Y2425D02*
X1015Y2425D01*
X1056Y2425D02*
X1115Y2425D01*
X1156Y2425D02*
X1215Y2425D01*
X956Y2424D02*
X1015Y2424D01*
X1056Y2424D02*
X1115Y2424D01*
X1156Y2424D02*
X1215Y2424D01*
X956Y2423D02*
X1015Y2423D01*
X1056Y2423D02*
X1115Y2423D01*
X1156Y2423D02*
X1215Y2423D01*
X956Y2422D02*
X1015Y2422D01*
X1056Y2422D02*
X1115Y2422D01*
X1156Y2422D02*
X1215Y2422D01*
X956Y2421D02*
X1015Y2421D01*
X1056Y2421D02*
X1115Y2421D01*
X1156Y2421D02*
X1215Y2421D01*
X956Y2420D02*
X1015Y2420D01*
X1056Y2420D02*
X1115Y2420D01*
X1156Y2420D02*
X1215Y2420D01*
X956Y2419D02*
X981Y2419D01*
X991Y2419D02*
X1015Y2419D01*
X1056Y2419D02*
X1081Y2419D01*
X1091Y2419D02*
X1115Y2419D01*
X1156Y2419D02*
X1181Y2419D01*
X1191Y2419D02*
X1215Y2419D01*
X956Y2418D02*
X978Y2418D01*
X994Y2418D02*
X1015Y2418D01*
X1056Y2418D02*
X1078Y2418D01*
X1094Y2418D02*
X1115Y2418D01*
X1156Y2418D02*
X1178Y2418D01*
X1194Y2418D02*
X1215Y2418D01*
X956Y2417D02*
X976Y2417D01*
X996Y2417D02*
X1015Y2417D01*
X1056Y2417D02*
X1076Y2417D01*
X1096Y2417D02*
X1115Y2417D01*
X1156Y2417D02*
X1176Y2417D01*
X1196Y2417D02*
X1215Y2417D01*
X956Y2416D02*
X974Y2416D01*
X998Y2416D02*
X1015Y2416D01*
X1056Y2416D02*
X1074Y2416D01*
X1098Y2416D02*
X1115Y2416D01*
X1156Y2416D02*
X1174Y2416D01*
X1198Y2416D02*
X1215Y2416D01*
X956Y2415D02*
X973Y2415D01*
X999Y2415D02*
X1015Y2415D01*
X1056Y2415D02*
X1073Y2415D01*
X1099Y2415D02*
X1115Y2415D01*
X1156Y2415D02*
X1173Y2415D01*
X1199Y2415D02*
X1215Y2415D01*
X956Y2414D02*
X972Y2414D01*
X1000Y2414D02*
X1015Y2414D01*
X1056Y2414D02*
X1072Y2414D01*
X1100Y2414D02*
X1115Y2414D01*
X1156Y2414D02*
X1172Y2414D01*
X1200Y2414D02*
X1215Y2414D01*
X956Y2413D02*
X971Y2413D01*
X1001Y2413D02*
X1015Y2413D01*
X1056Y2413D02*
X1071Y2413D01*
X1101Y2413D02*
X1115Y2413D01*
X1156Y2413D02*
X1171Y2413D01*
X1201Y2413D02*
X1215Y2413D01*
X956Y2412D02*
X970Y2412D01*
X1002Y2412D02*
X1015Y2412D01*
X1056Y2412D02*
X1070Y2412D01*
X1102Y2412D02*
X1115Y2412D01*
X1156Y2412D02*
X1170Y2412D01*
X1202Y2412D02*
X1215Y2412D01*
X956Y2411D02*
X969Y2411D01*
X1003Y2411D02*
X1015Y2411D01*
X1056Y2411D02*
X1069Y2411D01*
X1103Y2411D02*
X1115Y2411D01*
X1156Y2411D02*
X1169Y2411D01*
X1203Y2411D02*
X1215Y2411D01*
X956Y2410D02*
X968Y2410D01*
X1003Y2410D02*
X1015Y2410D01*
X1056Y2410D02*
X1068Y2410D01*
X1103Y2410D02*
X1115Y2410D01*
X1156Y2410D02*
X1168Y2410D01*
X1203Y2410D02*
X1215Y2410D01*
X956Y2409D02*
X968Y2409D01*
X1004Y2409D02*
X1015Y2409D01*
X1056Y2409D02*
X1068Y2409D01*
X1104Y2409D02*
X1115Y2409D01*
X1156Y2409D02*
X1168Y2409D01*
X1204Y2409D02*
X1215Y2409D01*
X956Y2408D02*
X967Y2408D01*
X1004Y2408D02*
X1015Y2408D01*
X1056Y2408D02*
X1067Y2408D01*
X1104Y2408D02*
X1115Y2408D01*
X1156Y2408D02*
X1167Y2408D01*
X1204Y2408D02*
X1215Y2408D01*
X956Y2407D02*
X967Y2407D01*
X1005Y2407D02*
X1015Y2407D01*
X1056Y2407D02*
X1067Y2407D01*
X1105Y2407D02*
X1115Y2407D01*
X1156Y2407D02*
X1167Y2407D01*
X1205Y2407D02*
X1215Y2407D01*
X956Y2406D02*
X967Y2406D01*
X1005Y2406D02*
X1015Y2406D01*
X1056Y2406D02*
X1067Y2406D01*
X1105Y2406D02*
X1115Y2406D01*
X1156Y2406D02*
X1166Y2406D01*
X1205Y2406D02*
X1215Y2406D01*
X956Y2405D02*
X966Y2405D01*
X1005Y2405D02*
X1015Y2405D01*
X1056Y2405D02*
X1066Y2405D01*
X1105Y2405D02*
X1115Y2405D01*
X1156Y2405D02*
X1166Y2405D01*
X1205Y2405D02*
X1215Y2405D01*
X956Y2404D02*
X966Y2404D01*
X1006Y2404D02*
X1015Y2404D01*
X1056Y2404D02*
X1066Y2404D01*
X1106Y2404D02*
X1115Y2404D01*
X1156Y2404D02*
X1166Y2404D01*
X1206Y2404D02*
X1215Y2404D01*
X956Y2403D02*
X966Y2403D01*
X1006Y2403D02*
X1015Y2403D01*
X1056Y2403D02*
X1066Y2403D01*
X1106Y2403D02*
X1115Y2403D01*
X1156Y2403D02*
X1166Y2403D01*
X1206Y2403D02*
X1215Y2403D01*
X956Y2402D02*
X966Y2402D01*
X1006Y2402D02*
X1015Y2402D01*
X1056Y2402D02*
X1066Y2402D01*
X1106Y2402D02*
X1115Y2402D01*
X1156Y2402D02*
X1166Y2402D01*
X1206Y2402D02*
X1215Y2402D01*
X956Y2401D02*
X966Y2401D01*
X1006Y2401D02*
X1015Y2401D01*
X1056Y2401D02*
X1066Y2401D01*
X1106Y2401D02*
X1115Y2401D01*
X1156Y2401D02*
X1165Y2401D01*
X1206Y2401D02*
X1215Y2401D01*
X956Y2400D02*
X965Y2400D01*
X1006Y2400D02*
X1015Y2400D01*
X1056Y2400D02*
X1065Y2400D01*
X1106Y2400D02*
X1115Y2400D01*
X1156Y2400D02*
X1165Y2400D01*
X1206Y2400D02*
X1215Y2400D01*
X956Y2399D02*
X965Y2399D01*
X1006Y2399D02*
X1015Y2399D01*
X1056Y2399D02*
X1065Y2399D01*
X1106Y2399D02*
X1115Y2399D01*
X1156Y2399D02*
X1165Y2399D01*
X1206Y2399D02*
X1215Y2399D01*
X956Y2398D02*
X966Y2398D01*
X1006Y2398D02*
X1015Y2398D01*
X1056Y2398D02*
X1066Y2398D01*
X1106Y2398D02*
X1115Y2398D01*
X1156Y2398D02*
X1165Y2398D01*
X1206Y2398D02*
X1215Y2398D01*
X956Y2397D02*
X966Y2397D01*
X1006Y2397D02*
X1015Y2397D01*
X1056Y2397D02*
X1066Y2397D01*
X1106Y2397D02*
X1115Y2397D01*
X1156Y2397D02*
X1166Y2397D01*
X1206Y2397D02*
X1215Y2397D01*
X956Y2396D02*
X966Y2396D01*
X1006Y2396D02*
X1015Y2396D01*
X1056Y2396D02*
X1066Y2396D01*
X1106Y2396D02*
X1115Y2396D01*
X1156Y2396D02*
X1166Y2396D01*
X1206Y2396D02*
X1215Y2396D01*
X956Y2395D02*
X966Y2395D01*
X1006Y2395D02*
X1015Y2395D01*
X1056Y2395D02*
X1066Y2395D01*
X1106Y2395D02*
X1115Y2395D01*
X1156Y2395D02*
X1166Y2395D01*
X1206Y2395D02*
X1215Y2395D01*
X956Y2394D02*
X966Y2394D01*
X1005Y2394D02*
X1015Y2394D01*
X1056Y2394D02*
X1066Y2394D01*
X1105Y2394D02*
X1115Y2394D01*
X1156Y2394D02*
X1166Y2394D01*
X1205Y2394D02*
X1215Y2394D01*
X956Y2393D02*
X967Y2393D01*
X1005Y2393D02*
X1015Y2393D01*
X1056Y2393D02*
X1067Y2393D01*
X1105Y2393D02*
X1115Y2393D01*
X1156Y2393D02*
X1167Y2393D01*
X1205Y2393D02*
X1215Y2393D01*
X956Y2392D02*
X967Y2392D01*
X1005Y2392D02*
X1015Y2392D01*
X1056Y2392D02*
X1067Y2392D01*
X1105Y2392D02*
X1115Y2392D01*
X1156Y2392D02*
X1167Y2392D01*
X1205Y2392D02*
X1215Y2392D01*
X956Y2391D02*
X967Y2391D01*
X1004Y2391D02*
X1015Y2391D01*
X1056Y2391D02*
X1067Y2391D01*
X1104Y2391D02*
X1115Y2391D01*
X1156Y2391D02*
X1167Y2391D01*
X1204Y2391D02*
X1215Y2391D01*
X956Y2390D02*
X968Y2390D01*
X1004Y2390D02*
X1015Y2390D01*
X1056Y2390D02*
X1068Y2390D01*
X1104Y2390D02*
X1115Y2390D01*
X1156Y2390D02*
X1168Y2390D01*
X1204Y2390D02*
X1215Y2390D01*
X956Y2389D02*
X968Y2389D01*
X1003Y2389D02*
X1015Y2389D01*
X1056Y2389D02*
X1068Y2389D01*
X1103Y2389D02*
X1115Y2389D01*
X1156Y2389D02*
X1168Y2389D01*
X1203Y2389D02*
X1215Y2389D01*
X956Y2388D02*
X969Y2388D01*
X1003Y2388D02*
X1015Y2388D01*
X1056Y2388D02*
X1069Y2388D01*
X1103Y2388D02*
X1115Y2388D01*
X1156Y2388D02*
X1169Y2388D01*
X1203Y2388D02*
X1215Y2388D01*
X956Y2387D02*
X970Y2387D01*
X1002Y2387D02*
X1015Y2387D01*
X1056Y2387D02*
X1070Y2387D01*
X1102Y2387D02*
X1115Y2387D01*
X1156Y2387D02*
X1170Y2387D01*
X1202Y2387D02*
X1215Y2387D01*
X956Y2386D02*
X971Y2386D01*
X1001Y2386D02*
X1015Y2386D01*
X1056Y2386D02*
X1071Y2386D01*
X1101Y2386D02*
X1115Y2386D01*
X1156Y2386D02*
X1171Y2386D01*
X1201Y2386D02*
X1215Y2386D01*
X956Y2385D02*
X972Y2385D01*
X1000Y2385D02*
X1015Y2385D01*
X1056Y2385D02*
X1072Y2385D01*
X1100Y2385D02*
X1115Y2385D01*
X1156Y2385D02*
X1172Y2385D01*
X1200Y2385D02*
X1215Y2385D01*
X956Y2384D02*
X973Y2384D01*
X999Y2384D02*
X1015Y2384D01*
X1056Y2384D02*
X1073Y2384D01*
X1099Y2384D02*
X1115Y2384D01*
X1156Y2384D02*
X1173Y2384D01*
X1199Y2384D02*
X1215Y2384D01*
X956Y2383D02*
X974Y2383D01*
X997Y2383D02*
X1015Y2383D01*
X1056Y2383D02*
X1074Y2383D01*
X1097Y2383D02*
X1115Y2383D01*
X1156Y2383D02*
X1174Y2383D01*
X1197Y2383D02*
X1215Y2383D01*
X956Y2382D02*
X976Y2382D01*
X996Y2382D02*
X1015Y2382D01*
X1056Y2382D02*
X1076Y2382D01*
X1096Y2382D02*
X1115Y2382D01*
X1156Y2382D02*
X1176Y2382D01*
X1196Y2382D02*
X1215Y2382D01*
X956Y2381D02*
X978Y2381D01*
X994Y2381D02*
X1015Y2381D01*
X1056Y2381D02*
X1078Y2381D01*
X1094Y2381D02*
X1115Y2381D01*
X1156Y2381D02*
X1178Y2381D01*
X1194Y2381D02*
X1215Y2381D01*
X956Y2380D02*
X981Y2380D01*
X990Y2380D02*
X1015Y2380D01*
X1056Y2380D02*
X1081Y2380D01*
X1090Y2380D02*
X1115Y2380D01*
X1156Y2380D02*
X1181Y2380D01*
X1190Y2380D02*
X1215Y2380D01*
X956Y2379D02*
X1015Y2379D01*
X1056Y2379D02*
X1115Y2379D01*
X1156Y2379D02*
X1215Y2379D01*
X956Y2378D02*
X1015Y2378D01*
X1056Y2378D02*
X1115Y2378D01*
X1156Y2378D02*
X1215Y2378D01*
X956Y2377D02*
X1015Y2377D01*
X1056Y2377D02*
X1115Y2377D01*
X1156Y2377D02*
X1215Y2377D01*
X956Y2376D02*
X1015Y2376D01*
X1056Y2376D02*
X1115Y2376D01*
X1156Y2376D02*
X1215Y2376D01*
X956Y2375D02*
X1015Y2375D01*
X1056Y2375D02*
X1115Y2375D01*
X1156Y2375D02*
X1215Y2375D01*
X956Y2374D02*
X1015Y2374D01*
X1056Y2374D02*
X1115Y2374D01*
X1156Y2374D02*
X1215Y2374D01*
X956Y2373D02*
X1015Y2373D01*
X1056Y2373D02*
X1115Y2373D01*
X1156Y2373D02*
X1215Y2373D01*
X956Y2372D02*
X1015Y2372D01*
X1056Y2372D02*
X1115Y2372D01*
X1156Y2372D02*
X1215Y2372D01*
X956Y2371D02*
X1015Y2371D01*
X1056Y2371D02*
X1115Y2371D01*
X1156Y2371D02*
X1215Y2371D01*
X956Y2370D02*
X1015Y2370D01*
X1056Y2370D02*
X1115Y2370D01*
X1156Y2370D02*
X1215Y2370D01*
X956Y2369D02*
X1015Y2369D01*
X1056Y2369D02*
X1115Y2369D01*
X1156Y2369D02*
X1215Y2369D01*
X956Y2368D02*
X1015Y2368D01*
X1056Y2368D02*
X1115Y2368D01*
X1156Y2368D02*
X1215Y2368D01*
X956Y2367D02*
X1015Y2367D01*
X1056Y2367D02*
X1115Y2367D01*
X1156Y2367D02*
X1215Y2367D01*
X957Y2366D02*
X1015Y2366D01*
X1057Y2366D02*
X1115Y2366D01*
X1157Y2366D02*
X1215Y2366D01*
X957Y2365D02*
X1015Y2365D01*
X1057Y2365D02*
X1115Y2365D01*
X1157Y2365D02*
X1215Y2365D01*
X957Y2364D02*
X1015Y2364D01*
X1057Y2364D02*
X1115Y2364D01*
X1157Y2364D02*
X1215Y2364D01*
X957Y2363D02*
X1015Y2363D01*
X1057Y2363D02*
X1115Y2363D01*
X1157Y2363D02*
X1215Y2363D01*
X957Y2362D02*
X1014Y2362D01*
X1057Y2362D02*
X1114Y2362D01*
X1157Y2362D02*
X1214Y2362D01*
X958Y2361D02*
X1014Y2361D01*
X1058Y2361D02*
X1114Y2361D01*
X1158Y2361D02*
X1214Y2361D01*
X958Y2360D02*
X1014Y2360D01*
X1058Y2360D02*
X1114Y2360D01*
X1158Y2360D02*
X1214Y2360D01*
X958Y2359D02*
X1013Y2359D01*
X1058Y2359D02*
X1113Y2359D01*
X1158Y2359D02*
X1213Y2359D01*
X959Y2358D02*
X1013Y2358D01*
X1059Y2358D02*
X1113Y2358D01*
X1159Y2358D02*
X1213Y2358D01*
X959Y2357D02*
X1013Y2357D01*
X1059Y2357D02*
X1113Y2357D01*
X1159Y2357D02*
X1213Y2357D01*
X960Y2356D02*
X1012Y2356D01*
X1060Y2356D02*
X1112Y2356D01*
X1160Y2356D02*
X1212Y2356D01*
X960Y2355D02*
X1012Y2355D01*
X1060Y2355D02*
X1112Y2355D01*
X1160Y2355D02*
X1212Y2355D01*
X961Y2354D02*
X1011Y2354D01*
X1061Y2354D02*
X1111Y2354D01*
X1161Y2354D02*
X1211Y2354D01*
X961Y2353D02*
X1010Y2353D01*
X1061Y2353D02*
X1110Y2353D01*
X1161Y2353D02*
X1210Y2353D01*
X962Y2352D02*
X1010Y2352D01*
X1062Y2352D02*
X1110Y2352D01*
X1162Y2352D02*
X1210Y2352D01*
X963Y2351D02*
X1009Y2351D01*
X1063Y2351D02*
X1109Y2351D01*
X1163Y2351D02*
X1209Y2351D01*
X964Y2350D02*
X1008Y2350D01*
X1064Y2350D02*
X1108Y2350D01*
X1164Y2350D02*
X1208Y2350D01*
X965Y2349D02*
X1007Y2349D01*
X1065Y2349D02*
X1107Y2349D01*
X1165Y2349D02*
X1207Y2349D01*
X966Y2348D02*
X1006Y2348D01*
X1066Y2348D02*
X1106Y2348D01*
X1166Y2348D02*
X1206Y2348D01*
X967Y2347D02*
X1005Y2347D01*
X1067Y2347D02*
X1105Y2347D01*
X1167Y2347D02*
X1205Y2347D01*
X968Y2346D02*
X1004Y2346D01*
X1068Y2346D02*
X1104Y2346D01*
X1168Y2346D02*
X1204Y2346D01*
X969Y2345D02*
X1002Y2345D01*
X1069Y2345D02*
X1102Y2345D01*
X1169Y2345D02*
X1202Y2345D01*
X971Y2344D02*
X1001Y2344D01*
X1071Y2344D02*
X1101Y2344D01*
X1171Y2344D02*
X1201Y2344D01*
X973Y2343D02*
X999Y2343D01*
X1073Y2343D02*
X1099Y2343D01*
X1173Y2343D02*
X1199Y2343D01*
X975Y2342D02*
X997Y2342D01*
X1075Y2342D02*
X1097Y2342D01*
X1175Y2342D02*
X1197Y2342D01*
X977Y2341D02*
X994Y2341D01*
X1077Y2341D02*
X1094Y2341D01*
X1177Y2341D02*
X1194Y2341D01*
X982Y2340D02*
X990Y2340D01*
X1082Y2340D02*
X1090Y2340D01*
X1182Y2340D02*
X1190Y2340D01*
X3150Y735D02*
X3221Y735D01*
X3150Y734D02*
X3221Y734D01*
X3150Y733D02*
X3221Y733D01*
X3150Y732D02*
X3221Y732D01*
X3150Y731D02*
X3221Y731D01*
X3150Y730D02*
X3221Y730D01*
X3150Y729D02*
X3221Y729D01*
X3150Y728D02*
X3221Y728D01*
X3150Y727D02*
X3221Y727D01*
X3150Y726D02*
X3221Y726D01*
X3150Y725D02*
X3221Y725D01*
X3150Y724D02*
X3221Y724D01*
X3150Y723D02*
X3221Y723D01*
X3150Y722D02*
X3221Y722D01*
X3150Y721D02*
X3221Y721D01*
X3150Y720D02*
X3221Y720D01*
X3150Y719D02*
X3221Y719D01*
X3150Y718D02*
X3221Y718D01*
X3150Y717D02*
X3221Y717D01*
X3150Y716D02*
X3221Y716D01*
X3150Y715D02*
X3221Y715D01*
X3150Y714D02*
X3221Y714D01*
X3150Y713D02*
X3221Y713D01*
X3150Y712D02*
X3221Y712D01*
X3150Y711D02*
X3221Y711D01*
X3150Y710D02*
X3221Y710D01*
X3150Y709D02*
X3221Y709D01*
X3150Y708D02*
X3221Y708D01*
X3150Y707D02*
X3221Y707D01*
X3150Y706D02*
X3221Y706D01*
X3150Y705D02*
X3221Y705D01*
X3150Y704D02*
X3221Y704D01*
X3150Y703D02*
X3221Y703D01*
X3150Y702D02*
X3221Y702D01*
X3150Y701D02*
X3221Y701D01*
X3150Y700D02*
X3221Y700D01*
X3150Y699D02*
X3221Y699D01*
X3150Y698D02*
X3221Y698D01*
X3150Y697D02*
X3221Y697D01*
X3150Y696D02*
X3221Y696D01*
X3150Y695D02*
X3221Y695D01*
X3150Y694D02*
X3221Y694D01*
X3150Y693D02*
X3221Y693D01*
X3150Y692D02*
X3221Y692D01*
X3150Y691D02*
X3221Y691D01*
X3150Y690D02*
X3221Y690D01*
X3150Y689D02*
X3221Y689D01*
X3150Y688D02*
X3221Y688D01*
X3150Y687D02*
X3221Y687D01*
X3150Y686D02*
X3221Y686D01*
X3150Y685D02*
X3221Y685D01*
X3150Y684D02*
X3221Y684D01*
X3150Y683D02*
X3221Y683D01*
X3150Y682D02*
X3221Y682D01*
X3150Y681D02*
X3221Y681D01*
X3150Y680D02*
X3221Y680D01*
X3150Y679D02*
X3221Y679D01*
X3150Y678D02*
X3221Y678D01*
X3150Y677D02*
X3221Y677D01*
X3150Y676D02*
X3221Y676D01*
X3150Y675D02*
X3221Y675D01*
X3150Y674D02*
X3221Y674D01*
X3150Y673D02*
X3221Y673D01*
X3150Y672D02*
X3221Y672D01*
X3150Y671D02*
X3221Y671D01*
X3150Y670D02*
X3221Y670D01*
X3150Y669D02*
X3221Y669D01*
X3150Y668D02*
X3221Y668D01*
X3150Y667D02*
X3221Y667D01*
X3150Y666D02*
X3221Y666D01*
X3150Y665D02*
X3221Y665D01*
X3150Y664D02*
X3221Y664D01*
D02*
G04 End of Copper1*
M02*